<mxfile host="app.diagrams.net" modified="2020-06-01T10:28:35.999Z" agent="5.0 (Windows NT 10.0; Win64; x64) AppleWebKit/537.36 (KHTML, like Gecko) Chrome/83.0.4103.61 Safari/537.36" etag="mhaYn1k1XbpCIecKal0K" version="13.1.5" type="gitlab">
  <diagram id="yZtEuj6dNI0XoK1ynlsu" name="Page-1">
    <mxGraphModel dx="1202" dy="522" grid="1" gridSize="10" guides="1" tooltips="1" connect="1" arrows="1" fold="1" page="1" pageScale="1" pageWidth="850" pageHeight="1100" math="0" shadow="0">
      <root>
        <mxCell id="0" />
        <mxCell id="1" parent="0" />
        <mxCell id="gkuzfOPucIeDffjEfbRR-11" value="" style="verticalLabelPosition=bottom;verticalAlign=top;html=1;shape=mxgraph.basic.patternFillRect;fillStyle=diag;step=5;fillStrokeWidth=0.2;fillStrokeColor=#dddddd;" vertex="1" parent="1">
          <mxGeometry x="110" y="463.65" width="610" height="180" as="geometry" />
        </mxCell>
        <mxCell id="gkuzfOPucIeDffjEfbRR-4" value="hub.docker.com&lt;br&gt;or private repo" style="whiteSpace=wrap;html=1;shape=mxgraph.basic.cloud_rect" vertex="1" parent="1">
          <mxGeometry x="355" y="280" width="120" height="90" as="geometry" />
        </mxCell>
        <mxCell id="gkuzfOPucIeDffjEfbRR-6" value="&#xa;&#xa;&lt;!--StartFragment--&gt;&lt;span style=&quot;color: rgb(0, 0, 0); font-family: Helvetica; font-size: 12px; font-style: normal; font-variant-ligatures: normal; font-variant-caps: normal; font-weight: 400; letter-spacing: normal; orphans: 2; text-align: center; text-indent: 0px; text-transform: none; widows: 2; word-spacing: 0px; -webkit-text-stroke-width: 0px; background-color: rgb(248, 249, 250); text-decoration-style: initial; text-decoration-color: initial; float: none; display: inline !important;&quot;&gt;K8S&lt;/span&gt;&lt;!--EndFragment--&gt;&#xa;&#xa;" style="rounded=0;whiteSpace=wrap;html=1;" vertex="1" parent="1">
          <mxGeometry x="110" y="463.65" width="70" height="30" as="geometry" />
        </mxCell>
        <mxCell id="gkuzfOPucIeDffjEfbRR-8" value="kubernetes configure file (*.yaml)" style="rounded=0;whiteSpace=wrap;html=1;" vertex="1" parent="1">
          <mxGeometry x="355" y="493.65" width="120" height="60" as="geometry" />
        </mxCell>
        <mxCell id="gkuzfOPucIeDffjEfbRR-9" value="" style="endArrow=classic;startArrow=classic;html=1;entryX=0.433;entryY=1.015;entryDx=0;entryDy=0;entryPerimeter=0;exitX=0.397;exitY=0.006;exitDx=0;exitDy=0;exitPerimeter=0;" edge="1" parent="1" source="gkuzfOPucIeDffjEfbRR-8">
          <mxGeometry width="50" height="50" relative="1" as="geometry">
            <mxPoint x="406" y="493.65" as="sourcePoint" />
            <mxPoint x="401.96000000000004" y="370" as="targetPoint" />
          </mxGeometry>
        </mxCell>
        <mxCell id="gkuzfOPucIeDffjEfbRR-10" value="load docker images from hub.docker.com" style="edgeLabel;html=1;align=center;verticalAlign=middle;resizable=0;points=[];fontStyle=1" vertex="1" connectable="0" parent="gkuzfOPucIeDffjEfbRR-9">
          <mxGeometry x="0.2474" y="3" relative="1" as="geometry">
            <mxPoint x="3.41" y="-9.989999999999998" as="offset" />
          </mxGeometry>
        </mxCell>
        <mxCell id="gkuzfOPucIeDffjEfbRR-17" value="pod" style="rounded=0;whiteSpace=wrap;html=1;" vertex="1" parent="1">
          <mxGeometry x="545" y="493.65" width="40" height="60" as="geometry" />
        </mxCell>
        <mxCell id="gkuzfOPucIeDffjEfbRR-18" value="services" style="rounded=0;whiteSpace=wrap;html=1;" vertex="1" parent="1">
          <mxGeometry x="540" y="573.65" width="50" height="60" as="geometry" />
        </mxCell>
        <mxCell id="gkuzfOPucIeDffjEfbRR-20" value="" style="endArrow=classic;html=1;exitX=1;exitY=0.5;exitDx=0;exitDy=0;entryX=0;entryY=0.5;entryDx=0;entryDy=0;" edge="1" parent="1" source="gkuzfOPucIeDffjEfbRR-8" target="gkuzfOPucIeDffjEfbRR-17">
          <mxGeometry width="50" height="50" relative="1" as="geometry">
            <mxPoint x="474.1700000000001" y="522.93" as="sourcePoint" />
            <mxPoint x="545" y="520.65" as="targetPoint" />
          </mxGeometry>
        </mxCell>
        <mxCell id="gkuzfOPucIeDffjEfbRR-21" value="" style="endArrow=classic;html=1;exitX=0.75;exitY=1;exitDx=0;exitDy=0;entryX=0;entryY=0.5;entryDx=0;entryDy=0;" edge="1" parent="1" source="gkuzfOPucIeDffjEfbRR-8" target="gkuzfOPucIeDffjEfbRR-18">
          <mxGeometry width="50" height="50" relative="1" as="geometry">
            <mxPoint x="485" y="533.65" as="sourcePoint" />
            <mxPoint x="555" y="533.65" as="targetPoint" />
            <Array as="points">
              <mxPoint x="445" y="603.65" />
            </Array>
          </mxGeometry>
        </mxCell>
        <mxCell id="gkuzfOPucIeDffjEfbRR-25" value="build" style="edgeStyle=orthogonalEdgeStyle;rounded=0;orthogonalLoop=1;jettySize=auto;html=1;fontStyle=1" edge="1" parent="1" source="gkuzfOPucIeDffjEfbRR-23" target="gkuzfOPucIeDffjEfbRR-24">
          <mxGeometry relative="1" as="geometry" />
        </mxCell>
        <mxCell id="gkuzfOPucIeDffjEfbRR-23" value="Dockerfile" style="rounded=0;whiteSpace=wrap;html=1;" vertex="1" parent="1">
          <mxGeometry x="355" y="30" width="120" height="60" as="geometry" />
        </mxCell>
        <mxCell id="gkuzfOPucIeDffjEfbRR-27" value="&lt;b&gt;push&lt;/b&gt;" style="edgeStyle=orthogonalEdgeStyle;rounded=0;orthogonalLoop=1;jettySize=auto;html=1;" edge="1" parent="1" source="gkuzfOPucIeDffjEfbRR-24" target="gkuzfOPucIeDffjEfbRR-4">
          <mxGeometry relative="1" as="geometry" />
        </mxCell>
        <mxCell id="gkuzfOPucIeDffjEfbRR-24" value="Docker Image" style="rounded=0;whiteSpace=wrap;html=1;" vertex="1" parent="1">
          <mxGeometry x="355" y="160" width="120" height="60" as="geometry" />
        </mxCell>
      </root>
    </mxGraphModel>
  </diagram>
</mxfile>
