<mxfile host="app.diagrams.net" modified="2020-06-03T07:37:56.400Z" agent="5.0 (Windows NT 10.0; Win64; x64) AppleWebKit/537.36 (KHTML, like Gecko) Chrome/83.0.4103.61 Safari/537.36" etag="CvVjOaB4egwuxoSgGcsS" version="13.1.14" type="gitlab" pages="3">
  <diagram id="N2NZb5E6tVsVV5k25QkZ" name="Architecture Dev Server">
    <mxGraphModel dx="1022" dy="478" grid="1" gridSize="10" guides="1" tooltips="1" connect="1" arrows="1" fold="1" page="1" pageScale="1" pageWidth="850" pageHeight="1100" math="0" shadow="0">
      <root>
        <mxCell id="0" />
        <mxCell id="1" parent="0" />
        <mxCell id="lRgT2c1lwiCM3lGZ_5FD-9" value="" style="verticalLabelPosition=bottom;verticalAlign=top;html=1;shape=mxgraph.basic.patternFillRect;fillStyle=diagGrid;step=5;fillStrokeWidth=0.2;fillStrokeColor=#dddddd;" parent="1" vertex="1">
          <mxGeometry x="30" y="20" width="630" height="500" as="geometry" />
        </mxCell>
        <mxCell id="PTU73TYFdy7TMcpxgtH8-1" value="" style="rounded=0;whiteSpace=wrap;html=1;" parent="1" vertex="1">
          <mxGeometry x="40" y="70" width="280" height="440" as="geometry" />
        </mxCell>
        <mxCell id="PTU73TYFdy7TMcpxgtH8-2" value="SERVER DEV" style="text;html=1;strokeColor=none;fillColor=none;align=center;verticalAlign=middle;whiteSpace=wrap;rounded=0;fontStyle=1" parent="1" vertex="1">
          <mxGeometry x="50" y="70" width="90" height="20" as="geometry" />
        </mxCell>
        <mxCell id="PTU73TYFdy7TMcpxgtH8-3" value="MICROSERVICES" style="text;html=1;strokeColor=none;fillColor=none;align=center;verticalAlign=middle;whiteSpace=wrap;rounded=0;" parent="1" vertex="1">
          <mxGeometry x="50" y="100" width="160" height="20" as="geometry" />
        </mxCell>
        <mxCell id="PTU73TYFdy7TMcpxgtH8-8" value="GITLAB_CE" style="rounded=0;whiteSpace=wrap;html=1;" parent="1" vertex="1">
          <mxGeometry x="50" y="430" width="250" height="60" as="geometry" />
        </mxCell>
        <mxCell id="PTU73TYFdy7TMcpxgtH8-9" value="Developer" style="rounded=0;whiteSpace=wrap;html=1;" parent="1" vertex="1">
          <mxGeometry x="570" y="210" width="70" height="60" as="geometry" />
        </mxCell>
        <mxCell id="u8SmvBvq4Nc2O2oSBhoM-1" value="SQL Server" style="rounded=0;whiteSpace=wrap;html=1;" parent="1" vertex="1">
          <mxGeometry x="50" y="360" width="250" height="60" as="geometry" />
        </mxCell>
        <mxCell id="u8SmvBvq4Nc2O2oSBhoM-2" value="" style="verticalLabelPosition=bottom;verticalAlign=top;html=1;shape=mxgraph.basic.patternFillRect;fillStyle=grid;step=5;fillStrokeWidth=0.2;fillStrokeColor=#dddddd;" parent="1" vertex="1">
          <mxGeometry x="50" y="130" width="250" height="220" as="geometry" />
        </mxCell>
        <mxCell id="u8SmvBvq4Nc2O2oSBhoM-3" value="" style="shape=process;whiteSpace=wrap;html=1;backgroundOutline=1;" parent="1" vertex="1">
          <mxGeometry x="60" y="140" width="60" height="60" as="geometry" />
        </mxCell>
        <mxCell id="u8SmvBvq4Nc2O2oSBhoM-7" value="" style="shape=process;whiteSpace=wrap;html=1;backgroundOutline=1;" parent="1" vertex="1">
          <mxGeometry x="140" y="140" width="60" height="60" as="geometry" />
        </mxCell>
        <mxCell id="u8SmvBvq4Nc2O2oSBhoM-8" value="" style="shape=process;whiteSpace=wrap;html=1;backgroundOutline=1;" parent="1" vertex="1">
          <mxGeometry x="220" y="140" width="60" height="60" as="geometry" />
        </mxCell>
        <mxCell id="u8SmvBvq4Nc2O2oSBhoM-9" value="" style="shape=process;whiteSpace=wrap;html=1;backgroundOutline=1;" parent="1" vertex="1">
          <mxGeometry x="60" y="210" width="60" height="60" as="geometry" />
        </mxCell>
        <mxCell id="u8SmvBvq4Nc2O2oSBhoM-10" value="" style="shape=process;whiteSpace=wrap;html=1;backgroundOutline=1;" parent="1" vertex="1">
          <mxGeometry x="140" y="210" width="60" height="60" as="geometry" />
        </mxCell>
        <mxCell id="u8SmvBvq4Nc2O2oSBhoM-11" value="" style="shape=process;whiteSpace=wrap;html=1;backgroundOutline=1;" parent="1" vertex="1">
          <mxGeometry x="220" y="210" width="60" height="60" as="geometry" />
        </mxCell>
        <mxCell id="u8SmvBvq4Nc2O2oSBhoM-12" value="" style="shape=process;whiteSpace=wrap;html=1;backgroundOutline=1;" parent="1" vertex="1">
          <mxGeometry x="60" y="280" width="60" height="60" as="geometry" />
        </mxCell>
        <mxCell id="u8SmvBvq4Nc2O2oSBhoM-13" value="" style="shape=process;whiteSpace=wrap;html=1;backgroundOutline=1;" parent="1" vertex="1">
          <mxGeometry x="140" y="280" width="60" height="60" as="geometry" />
        </mxCell>
        <mxCell id="u8SmvBvq4Nc2O2oSBhoM-14" value="" style="shape=process;whiteSpace=wrap;html=1;backgroundOutline=1;" parent="1" vertex="1">
          <mxGeometry x="220" y="280" width="60" height="60" as="geometry" />
        </mxCell>
        <mxCell id="lRgT2c1lwiCM3lGZ_5FD-2" value="" style="endArrow=classic;html=1;exitX=0;exitY=0.5;exitDx=0;exitDy=0;entryX=1;entryY=0.5;entryDx=0;entryDy=0;entryPerimeter=0;" parent="1" source="PTU73TYFdy7TMcpxgtH8-9" target="u8SmvBvq4Nc2O2oSBhoM-2" edge="1">
          <mxGeometry width="50" height="50" relative="1" as="geometry">
            <mxPoint x="400" y="270" as="sourcePoint" />
            <mxPoint x="450" y="220" as="targetPoint" />
          </mxGeometry>
        </mxCell>
        <mxCell id="lRgT2c1lwiCM3lGZ_5FD-3" value="Use the existing microservices" style="edgeLabel;html=1;align=center;verticalAlign=middle;resizable=0;points=[];" parent="lRgT2c1lwiCM3lGZ_5FD-2" vertex="1" connectable="0">
          <mxGeometry x="-0.1242" y="1" relative="1" as="geometry">
            <mxPoint y="1" as="offset" />
          </mxGeometry>
        </mxCell>
        <mxCell id="lRgT2c1lwiCM3lGZ_5FD-4" value="" style="endArrow=classic;html=1;exitX=0.5;exitY=1;exitDx=0;exitDy=0;entryX=1;entryY=0.5;entryDx=0;entryDy=0;" parent="1" source="PTU73TYFdy7TMcpxgtH8-9" target="u8SmvBvq4Nc2O2oSBhoM-1" edge="1">
          <mxGeometry width="50" height="50" relative="1" as="geometry">
            <mxPoint x="400" y="270" as="sourcePoint" />
            <mxPoint x="450" y="220" as="targetPoint" />
            <Array as="points">
              <mxPoint x="605" y="390" />
            </Array>
          </mxGeometry>
        </mxCell>
        <mxCell id="lRgT2c1lwiCM3lGZ_5FD-5" value="Connect to database" style="edgeLabel;html=1;align=center;verticalAlign=middle;resizable=0;points=[];" parent="lRgT2c1lwiCM3lGZ_5FD-4" vertex="1" connectable="0">
          <mxGeometry x="0.1122" relative="1" as="geometry">
            <mxPoint as="offset" />
          </mxGeometry>
        </mxCell>
        <mxCell id="lRgT2c1lwiCM3lGZ_5FD-6" value="" style="endArrow=classic;html=1;exitX=0.5;exitY=1;exitDx=0;exitDy=0;entryX=1;entryY=0.5;entryDx=0;entryDy=0;" parent="1" source="PTU73TYFdy7TMcpxgtH8-9" target="PTU73TYFdy7TMcpxgtH8-8" edge="1">
          <mxGeometry width="50" height="50" relative="1" as="geometry">
            <mxPoint x="615" y="280" as="sourcePoint" />
            <mxPoint x="310" y="400" as="targetPoint" />
            <Array as="points">
              <mxPoint x="605" y="460" />
            </Array>
          </mxGeometry>
        </mxCell>
        <mxCell id="lRgT2c1lwiCM3lGZ_5FD-7" value="Pull/Push/Merge Code" style="edgeLabel;html=1;align=center;verticalAlign=middle;resizable=0;points=[];" parent="lRgT2c1lwiCM3lGZ_5FD-6" vertex="1" connectable="0">
          <mxGeometry x="0.1122" relative="1" as="geometry">
            <mxPoint x="-30" as="offset" />
          </mxGeometry>
        </mxCell>
        <mxCell id="lRgT2c1lwiCM3lGZ_5FD-12" value="MÔI TRƯỜNG MONG MUỐN" style="text;html=1;strokeColor=none;fillColor=none;align=center;verticalAlign=middle;whiteSpace=wrap;rounded=0;fontStyle=1" parent="1" vertex="1">
          <mxGeometry x="30" y="20" width="170" height="20" as="geometry" />
        </mxCell>
        <mxCell id="lRgT2c1lwiCM3lGZ_5FD-13" value="" style="verticalLabelPosition=bottom;verticalAlign=top;html=1;shape=mxgraph.basic.patternFillRect;fillStyle=diagGrid;step=5;fillStrokeWidth=0.2;fillStrokeColor=#dddddd;" parent="1" vertex="1">
          <mxGeometry x="30" y="560" width="630" height="550" as="geometry" />
        </mxCell>
        <mxCell id="lRgT2c1lwiCM3lGZ_5FD-14" value="" style="rounded=0;whiteSpace=wrap;html=1;" parent="1" vertex="1">
          <mxGeometry x="40" y="610" width="280" height="290" as="geometry" />
        </mxCell>
        <mxCell id="lRgT2c1lwiCM3lGZ_5FD-15" value="SERVER DEV" style="text;html=1;strokeColor=none;fillColor=none;align=center;verticalAlign=middle;whiteSpace=wrap;rounded=0;fontStyle=1" parent="1" vertex="1">
          <mxGeometry x="50" y="610" width="90" height="20" as="geometry" />
        </mxCell>
        <mxCell id="lRgT2c1lwiCM3lGZ_5FD-16" value="MICROSERVICES" style="text;html=1;strokeColor=none;fillColor=none;align=center;verticalAlign=middle;whiteSpace=wrap;rounded=0;" parent="1" vertex="1">
          <mxGeometry x="50" y="640" width="160" height="20" as="geometry" />
        </mxCell>
        <mxCell id="lRgT2c1lwiCM3lGZ_5FD-18" value="Developer" style="rounded=0;whiteSpace=wrap;html=1;" parent="1" vertex="1">
          <mxGeometry x="140" y="1010" width="70" height="60" as="geometry" />
        </mxCell>
        <mxCell id="lRgT2c1lwiCM3lGZ_5FD-20" value="" style="verticalLabelPosition=bottom;verticalAlign=top;html=1;shape=mxgraph.basic.patternFillRect;fillStyle=grid;step=5;fillStrokeWidth=0.2;fillStrokeColor=#dddddd;" parent="1" vertex="1">
          <mxGeometry x="50" y="670" width="250" height="220" as="geometry" />
        </mxCell>
        <mxCell id="lRgT2c1lwiCM3lGZ_5FD-21" value="" style="shape=process;whiteSpace=wrap;html=1;backgroundOutline=1;" parent="1" vertex="1">
          <mxGeometry x="60" y="680" width="60" height="60" as="geometry" />
        </mxCell>
        <mxCell id="lRgT2c1lwiCM3lGZ_5FD-22" value="" style="shape=process;whiteSpace=wrap;html=1;backgroundOutline=1;" parent="1" vertex="1">
          <mxGeometry x="140" y="680" width="60" height="60" as="geometry" />
        </mxCell>
        <mxCell id="lRgT2c1lwiCM3lGZ_5FD-23" value="" style="shape=process;whiteSpace=wrap;html=1;backgroundOutline=1;" parent="1" vertex="1">
          <mxGeometry x="220" y="680" width="60" height="60" as="geometry" />
        </mxCell>
        <mxCell id="lRgT2c1lwiCM3lGZ_5FD-24" value="" style="shape=process;whiteSpace=wrap;html=1;backgroundOutline=1;" parent="1" vertex="1">
          <mxGeometry x="60" y="750" width="60" height="60" as="geometry" />
        </mxCell>
        <mxCell id="lRgT2c1lwiCM3lGZ_5FD-25" value="" style="shape=process;whiteSpace=wrap;html=1;backgroundOutline=1;" parent="1" vertex="1">
          <mxGeometry x="140" y="750" width="60" height="60" as="geometry" />
        </mxCell>
        <mxCell id="lRgT2c1lwiCM3lGZ_5FD-26" value="" style="shape=process;whiteSpace=wrap;html=1;backgroundOutline=1;" parent="1" vertex="1">
          <mxGeometry x="220" y="750" width="60" height="60" as="geometry" />
        </mxCell>
        <mxCell id="lRgT2c1lwiCM3lGZ_5FD-27" value="" style="shape=process;whiteSpace=wrap;html=1;backgroundOutline=1;" parent="1" vertex="1">
          <mxGeometry x="60" y="820" width="60" height="60" as="geometry" />
        </mxCell>
        <mxCell id="lRgT2c1lwiCM3lGZ_5FD-28" value="" style="shape=process;whiteSpace=wrap;html=1;backgroundOutline=1;" parent="1" vertex="1">
          <mxGeometry x="140" y="820" width="60" height="60" as="geometry" />
        </mxCell>
        <mxCell id="lRgT2c1lwiCM3lGZ_5FD-29" value="" style="shape=process;whiteSpace=wrap;html=1;backgroundOutline=1;" parent="1" vertex="1">
          <mxGeometry x="220" y="820" width="60" height="60" as="geometry" />
        </mxCell>
        <mxCell id="lRgT2c1lwiCM3lGZ_5FD-30" value="" style="endArrow=classic;html=1;exitX=0.5;exitY=0;exitDx=0;exitDy=0;entryX=0.5;entryY=1;entryDx=0;entryDy=0;entryPerimeter=0;" parent="1" source="lRgT2c1lwiCM3lGZ_5FD-18" target="lRgT2c1lwiCM3lGZ_5FD-20" edge="1">
          <mxGeometry width="50" height="50" relative="1" as="geometry">
            <mxPoint x="400" y="810" as="sourcePoint" />
            <mxPoint x="450" y="760" as="targetPoint" />
          </mxGeometry>
        </mxCell>
        <mxCell id="lRgT2c1lwiCM3lGZ_5FD-31" value="Use the existing microservices" style="edgeLabel;html=1;align=center;verticalAlign=middle;resizable=0;points=[];" parent="lRgT2c1lwiCM3lGZ_5FD-30" vertex="1" connectable="0">
          <mxGeometry x="-0.1242" y="1" relative="1" as="geometry">
            <mxPoint y="1" as="offset" />
          </mxGeometry>
        </mxCell>
        <mxCell id="lRgT2c1lwiCM3lGZ_5FD-32" value="" style="endArrow=classic;html=1;entryX=0.606;entryY=0.496;entryDx=0;entryDy=0;entryPerimeter=0;" parent="1" target="lRgT2c1lwiCM3lGZ_5FD-13" edge="1">
          <mxGeometry width="50" height="50" relative="1" as="geometry">
            <mxPoint x="210" y="1041" as="sourcePoint" />
            <mxPoint x="450" y="760" as="targetPoint" />
            <Array as="points">
              <mxPoint x="412" y="1041" />
              <mxPoint x="412" y="960" />
            </Array>
          </mxGeometry>
        </mxCell>
        <mxCell id="lRgT2c1lwiCM3lGZ_5FD-33" value="Connect to database" style="edgeLabel;html=1;align=center;verticalAlign=middle;resizable=0;points=[];" parent="lRgT2c1lwiCM3lGZ_5FD-32" vertex="1" connectable="0">
          <mxGeometry x="0.1122" relative="1" as="geometry">
            <mxPoint x="-2" y="-89" as="offset" />
          </mxGeometry>
        </mxCell>
        <mxCell id="lRgT2c1lwiCM3lGZ_5FD-34" value="" style="endArrow=classic;html=1;exitX=1;exitY=0.5;exitDx=0;exitDy=0;entryX=0.5;entryY=1;entryDx=0;entryDy=0;" parent="1" source="lRgT2c1lwiCM3lGZ_5FD-18" target="lRgT2c1lwiCM3lGZ_5FD-38" edge="1">
          <mxGeometry width="50" height="50" relative="1" as="geometry">
            <mxPoint x="615" y="820" as="sourcePoint" />
            <mxPoint x="310" y="940" as="targetPoint" />
            <Array as="points">
              <mxPoint x="570" y="1040" />
            </Array>
          </mxGeometry>
        </mxCell>
        <mxCell id="lRgT2c1lwiCM3lGZ_5FD-35" value="Pull/Push/Merge Code" style="edgeLabel;html=1;align=center;verticalAlign=middle;resizable=0;points=[];" parent="lRgT2c1lwiCM3lGZ_5FD-34" vertex="1" connectable="0">
          <mxGeometry x="0.1122" relative="1" as="geometry">
            <mxPoint x="60" y="-100" as="offset" />
          </mxGeometry>
        </mxCell>
        <mxCell id="lRgT2c1lwiCM3lGZ_5FD-36" value="THỰC TẾ" style="text;html=1;strokeColor=none;fillColor=none;align=center;verticalAlign=middle;whiteSpace=wrap;rounded=0;fontStyle=1" parent="1" vertex="1">
          <mxGeometry x="30" y="560" width="170" height="20" as="geometry" />
        </mxCell>
        <mxCell id="lRgT2c1lwiCM3lGZ_5FD-37" value="" style="rounded=0;whiteSpace=wrap;html=1;" parent="1" vertex="1">
          <mxGeometry x="350" y="730" width="120" height="130" as="geometry" />
        </mxCell>
        <mxCell id="lRgT2c1lwiCM3lGZ_5FD-38" value="" style="rounded=0;whiteSpace=wrap;html=1;" parent="1" vertex="1">
          <mxGeometry x="510" y="760" width="120" height="100" as="geometry" />
        </mxCell>
        <mxCell id="lRgT2c1lwiCM3lGZ_5FD-39" value="Server Staging&amp;nbsp;" style="text;html=1;strokeColor=none;fillColor=none;align=center;verticalAlign=middle;whiteSpace=wrap;rounded=0;fontStyle=1" parent="1" vertex="1">
          <mxGeometry x="360" y="740" width="110" height="20" as="geometry" />
        </mxCell>
        <mxCell id="lRgT2c1lwiCM3lGZ_5FD-40" value="FC40&lt;br&gt;Staging" style="shape=cylinder;whiteSpace=wrap;html=1;boundedLbl=1;backgroundOutline=1;" parent="1" vertex="1">
          <mxGeometry x="380" y="770" width="60" height="80" as="geometry" />
        </mxCell>
        <mxCell id="lRgT2c1lwiCM3lGZ_5FD-41" value="3S Git" style="text;html=1;strokeColor=none;fillColor=none;align=center;verticalAlign=middle;whiteSpace=wrap;rounded=0;fontStyle=1" parent="1" vertex="1">
          <mxGeometry x="515" y="770" width="110" height="20" as="geometry" />
        </mxCell>
        <mxCell id="lRgT2c1lwiCM3lGZ_5FD-43" value="Gitlab" style="shape=process;whiteSpace=wrap;html=1;backgroundOutline=1;" parent="1" vertex="1">
          <mxGeometry x="525" y="797.5" width="90" height="45" as="geometry" />
        </mxCell>
      </root>
    </mxGraphModel>
  </diagram>
  <diagram id="W8-s1pNMJ29EtqqTf9Ty" name="Architecture">
    
    <mxGraphModel dx="1022" dy="429" grid="1" gridSize="10" guides="1" tooltips="1" connect="1" arrows="1" fold="1" page="1" pageScale="1" pageWidth="850" pageHeight="1100" math="0" shadow="0">
      
      <root>
        
        <mxCell id="O_33PAqBpV2y8F0YGEyq-0" />
        
        <mxCell id="O_33PAqBpV2y8F0YGEyq-1" parent="O_33PAqBpV2y8F0YGEyq-0" />
        
        <mxCell id="O_33PAqBpV2y8F0YGEyq-3" value="Nginx - Ingress" style="rounded=0;whiteSpace=wrap;html=1;" parent="O_33PAqBpV2y8F0YGEyq-1" vertex="1">
          
          <mxGeometry x="80" y="100" width="120" height="60" as="geometry" />
          
        </mxCell>
        
        <mxCell id="O_33PAqBpV2y8F0YGEyq-4" value="Load Balance" style="rounded=0;whiteSpace=wrap;html=1;" parent="O_33PAqBpV2y8F0YGEyq-1" vertex="1">
          
          <mxGeometry x="320" y="100" width="120" height="60" as="geometry" />
          
        </mxCell>
        
        <mxCell id="O_33PAqBpV2y8F0YGEyq-5" value="" style="shape=flexArrow;endArrow=classic;html=1;exitX=1;exitY=0.5;exitDx=0;exitDy=0;entryX=0;entryY=0.5;entryDx=0;entryDy=0;" parent="O_33PAqBpV2y8F0YGEyq-1" source="O_33PAqBpV2y8F0YGEyq-3" target="O_33PAqBpV2y8F0YGEyq-4" edge="1">
          
          <mxGeometry width="50" height="50" relative="1" as="geometry">
            
            <mxPoint x="400" y="170" as="sourcePoint" />
            
            <mxPoint x="450" y="120" as="targetPoint" />
            
          </mxGeometry>
          
        </mxCell>
        
        <mxCell id="O_33PAqBpV2y8F0YGEyq-13" value="Mục đích" style="edgeLabel;html=1;align=center;verticalAlign=middle;resizable=0;points=[];" parent="O_33PAqBpV2y8F0YGEyq-5" vertex="1" connectable="0">
          
          <mxGeometry x="-0.3333" y="-2" relative="1" as="geometry">
            
            <mxPoint x="3" y="-22" as="offset" />
            
          </mxGeometry>
          
        </mxCell>
        
        <mxCell id="O_33PAqBpV2y8F0YGEyq-6" value="Microservice communicate via &lt;b&gt;Service Bus&lt;/b&gt;" style="rounded=0;whiteSpace=wrap;html=1;" parent="O_33PAqBpV2y8F0YGEyq-1" vertex="1">
          
          <mxGeometry x="80" y="220" width="120" height="60" as="geometry" />
          
        </mxCell>
        
        <mxCell id="O_33PAqBpV2y8F0YGEyq-8" value="RabbitMQ" style="rounded=0;whiteSpace=wrap;html=1;" parent="O_33PAqBpV2y8F0YGEyq-1" vertex="1">
          
          <mxGeometry x="320" y="220" width="120" height="60" as="geometry" />
          
        </mxCell>
        
        <mxCell id="O_33PAqBpV2y8F0YGEyq-9" value="" style="shape=flexArrow;endArrow=classic;html=1;exitX=1;exitY=0.5;exitDx=0;exitDy=0;entryX=0;entryY=0.5;entryDx=0;entryDy=0;" parent="O_33PAqBpV2y8F0YGEyq-1" source="O_33PAqBpV2y8F0YGEyq-6" target="O_33PAqBpV2y8F0YGEyq-8" edge="1">
          
          <mxGeometry width="50" height="50" relative="1" as="geometry">
            
            <mxPoint x="400" y="310" as="sourcePoint" />
            
            <mxPoint x="280" y="250" as="targetPoint" />
            
          </mxGeometry>
          
        </mxCell>
        
        <mxCell id="O_33PAqBpV2y8F0YGEyq-12" value="Sử dụng" style="edgeLabel;html=1;align=center;verticalAlign=middle;resizable=0;points=[];" parent="O_33PAqBpV2y8F0YGEyq-9" vertex="1" connectable="0">
          
          <mxGeometry x="-0.2833" y="-2" relative="1" as="geometry">
            
            <mxPoint x="1" y="-22" as="offset" />
            
          </mxGeometry>
          
        </mxCell>
        
        <mxCell id="O_33PAqBpV2y8F0YGEyq-10" value="Rancher Kubernetes Engine (RKE)" style="rounded=0;whiteSpace=wrap;html=1;" parent="O_33PAqBpV2y8F0YGEyq-1" vertex="1">
          
          <mxGeometry x="80" y="340" width="120" height="60" as="geometry" />
          
        </mxCell>
        
        <mxCell id="O_33PAqBpV2y8F0YGEyq-11" value="Build Kubernetes Clusters" style="rounded=0;whiteSpace=wrap;html=1;" parent="O_33PAqBpV2y8F0YGEyq-1" vertex="1">
          
          <mxGeometry x="320" y="340" width="120" height="60" as="geometry" />
          
        </mxCell>
        
        <mxCell id="O_33PAqBpV2y8F0YGEyq-16" value="" style="shape=flexArrow;endArrow=classic;html=1;exitX=1;exitY=0.5;exitDx=0;exitDy=0;" parent="O_33PAqBpV2y8F0YGEyq-1" edge="1">
          
          <mxGeometry width="50" height="50" relative="1" as="geometry">
            
            <mxPoint x="200" y="369.5" as="sourcePoint" />
            
            <mxPoint x="320" y="370" as="targetPoint" />
            
          </mxGeometry>
          
        </mxCell>
        
        <mxCell id="O_33PAqBpV2y8F0YGEyq-17" value="Mục đích" style="edgeLabel;html=1;align=center;verticalAlign=middle;resizable=0;points=[];" parent="O_33PAqBpV2y8F0YGEyq-16" vertex="1" connectable="0">
          
          <mxGeometry x="-0.2833" y="-2" relative="1" as="geometry">
            
            <mxPoint x="1" y="-22" as="offset" />
            
          </mxGeometry>
          
        </mxCell>
        
      </root>
      
    </mxGraphModel>
    
  </diagram>
  <diagram id="qf9EYD8uPAjSd2F__xhJ" name="Dev Server Builder">
    <mxGraphModel dx="1022" dy="478" grid="1" gridSize="10" guides="1" tooltips="1" connect="1" arrows="1" fold="1" page="1" pageScale="1" pageWidth="850" pageHeight="1100" math="0" shadow="0">
      <root>
        <mxCell id="hNrFIX0jEVSQUTbNoz2p-0" />
        <mxCell id="hNrFIX0jEVSQUTbNoz2p-1" parent="hNrFIX0jEVSQUTbNoz2p-0" />
        <mxCell id="hNrFIX0jEVSQUTbNoz2p-30" value="" style="verticalLabelPosition=bottom;verticalAlign=top;html=1;shape=mxgraph.basic.rect;fillColor2=none;strokeWidth=1;size=20;indent=5;shadow=0;fillColor=#CCCCCC;" parent="hNrFIX0jEVSQUTbNoz2p-1" vertex="1">
          <mxGeometry x="30" y="310" width="510" height="400" as="geometry" />
        </mxCell>
        <mxCell id="hNrFIX0jEVSQUTbNoz2p-7" value="" style="verticalLabelPosition=bottom;verticalAlign=top;html=1;shape=mxgraph.basic.patternFillRect;fillStyle=diag;step=5;fillStrokeWidth=0.2;fillStrokeColor=#dddddd;shadow=0;" parent="hNrFIX0jEVSQUTbNoz2p-1" vertex="1">
          <mxGeometry x="230" y="350" width="290" height="320" as="geometry" />
        </mxCell>
        <mxCell id="hNrFIX0jEVSQUTbNoz2p-2" value="&lt;b&gt;Server Dev - 10.220.32.27&lt;/b&gt;" style="image;html=1;labelBackgroundColor=#ffffff;image=img/lib/clip_art/computers/Server_128x128.png" parent="hNrFIX0jEVSQUTbNoz2p-1" vertex="1">
          <mxGeometry x="335" y="350" width="80" height="80" as="geometry" />
        </mxCell>
        <mxCell id="hNrFIX0jEVSQUTbNoz2p-22" style="edgeStyle=orthogonalEdgeStyle;rounded=0;orthogonalLoop=1;jettySize=auto;html=1;" parent="hNrFIX0jEVSQUTbNoz2p-1" source="hNrFIX0jEVSQUTbNoz2p-3" target="hNrFIX0jEVSQUTbNoz2p-21" edge="1">
          <mxGeometry relative="1" as="geometry">
            <Array as="points">
              <mxPoint x="630" y="100" />
            </Array>
          </mxGeometry>
        </mxCell>
        <mxCell id="hNrFIX0jEVSQUTbNoz2p-25" style="edgeStyle=orthogonalEdgeStyle;rounded=0;orthogonalLoop=1;jettySize=auto;html=1;entryX=0.5;entryY=0;entryDx=0;entryDy=0;" parent="hNrFIX0jEVSQUTbNoz2p-1" source="hNrFIX0jEVSQUTbNoz2p-3" target="hNrFIX0jEVSQUTbNoz2p-24" edge="1">
          <mxGeometry relative="1" as="geometry">
            <Array as="points">
              <mxPoint x="305" y="100" />
            </Array>
          </mxGeometry>
        </mxCell>
        <mxCell id="hNrFIX0jEVSQUTbNoz2p-3" value="&lt;b&gt;Dev Client&lt;/b&gt;" style="aspect=fixed;perimeter=ellipsePerimeter;html=1;align=center;shadow=0;dashed=0;spacingTop=3;image;image=img/lib/active_directory/laptop_client.svg;" parent="hNrFIX0jEVSQUTbNoz2p-1" vertex="1">
          <mxGeometry x="589.5" y="30" width="81" height="90" as="geometry" />
        </mxCell>
        <mxCell id="hNrFIX0jEVSQUTbNoz2p-14" style="edgeStyle=orthogonalEdgeStyle;rounded=0;orthogonalLoop=1;jettySize=auto;html=1;" parent="hNrFIX0jEVSQUTbNoz2p-1" source="hNrFIX0jEVSQUTbNoz2p-8" target="hNrFIX0jEVSQUTbNoz2p-13" edge="1">
          <mxGeometry relative="1" as="geometry" />
        </mxCell>
        <mxCell id="hNrFIX0jEVSQUTbNoz2p-8" value="Microservice" style="html=1;strokeColor=none;fillColor=#0079D6;labelPosition=center;verticalLabelPosition=middle;verticalAlign=top;align=center;fontSize=12;outlineConnect=0;spacingTop=-6;fontColor=#FFFFFF;shape=mxgraph.sitemap.services;shadow=0;" parent="hNrFIX0jEVSQUTbNoz2p-1" vertex="1">
          <mxGeometry x="250" y="564" width="120" height="70" as="geometry" />
        </mxCell>
        <mxCell id="hNrFIX0jEVSQUTbNoz2p-12" value="Web" style="rounded=0;whiteSpace=wrap;html=1;shadow=0;" parent="hNrFIX0jEVSQUTbNoz2p-1" vertex="1">
          <mxGeometry x="305" y="470" width="120" height="65" as="geometry" />
        </mxCell>
        <mxCell id="hNrFIX0jEVSQUTbNoz2p-13" value="" style="outlineConnect=0;fontColor=#232F3E;gradientColor=none;fillColor=#3334B9;strokeColor=none;dashed=0;verticalLabelPosition=bottom;verticalAlign=top;align=center;html=1;fontSize=12;fontStyle=0;aspect=fixed;pointerEvents=1;shape=mxgraph.aws4.rds_sql_server_instance;shadow=0;" parent="hNrFIX0jEVSQUTbNoz2p-1" vertex="1">
          <mxGeometry x="425" y="560" width="78" height="78" as="geometry" />
        </mxCell>
        <mxCell id="hNrFIX0jEVSQUTbNoz2p-21" value="&lt;b&gt;Jump Server&lt;/b&gt;&lt;br&gt;&lt;table border=&quot;0&quot; cellpadding=&quot;0&quot; cellspacing=&quot;0&quot; width=&quot;151&quot; style=&quot;border-collapse: collapse ; width: 113pt&quot;&gt;&lt;tbody&gt;&lt;tr style=&quot;height: 46.5pt&quot;&gt;  &lt;td height=&quot;62&quot; class=&quot;xl66&quot; width=&quot;151&quot; style=&quot;height: 46.5pt ; width: 113pt&quot;&gt;&lt;b&gt;10.100.76.101&lt;/b&gt;&lt;/td&gt;&lt;/tr&gt;&lt;/tbody&gt;&lt;/table&gt;" style="rounded=0;whiteSpace=wrap;html=1;shadow=0;fillColor=#FFF2CC;" parent="hNrFIX0jEVSQUTbNoz2p-1" vertex="1">
          <mxGeometry x="560" y="200" width="160" height="80" as="geometry" />
        </mxCell>
        <mxCell id="hNrFIX0jEVSQUTbNoz2p-23" value="" style="endArrow=classic;startArrow=classic;html=1;exitX=1;exitY=0.25;exitDx=0;exitDy=0;exitPerimeter=0;" parent="hNrFIX0jEVSQUTbNoz2p-1" source="hNrFIX0jEVSQUTbNoz2p-7" target="hNrFIX0jEVSQUTbNoz2p-21" edge="1">
          <mxGeometry width="50" height="50" relative="1" as="geometry">
            <mxPoint x="401" y="329" as="sourcePoint" />
            <mxPoint x="590" y="220" as="targetPoint" />
            <Array as="points">
              <mxPoint x="640" y="430" />
            </Array>
          </mxGeometry>
        </mxCell>
        <mxCell id="hNrFIX0jEVSQUTbNoz2p-24" value="Nginx Proxy&lt;br&gt;&lt;table border=&quot;0&quot; cellpadding=&quot;0&quot; cellspacing=&quot;0&quot; width=&quot;151&quot; style=&quot;border-collapse: collapse ; width: 113pt&quot;&gt;&lt;tbody&gt;&lt;tr style=&quot;height: 31.0pt&quot;&gt;  &lt;td height=&quot;41&quot; class=&quot;xl66&quot; width=&quot;151&quot; style=&quot;height: 31.0pt ; width: 113pt&quot;&gt;10.111.126.38&lt;/td&gt;&lt;/tr&gt;&lt;/tbody&gt;&lt;/table&gt;" style="rounded=0;whiteSpace=wrap;html=1;shadow=0;fillColor=#FFF2CC;align=center;fontStyle=1" parent="hNrFIX0jEVSQUTbNoz2p-1" vertex="1">
          <mxGeometry x="185" y="200" width="240" height="80" as="geometry" />
        </mxCell>
        <mxCell id="hNrFIX0jEVSQUTbNoz2p-32" value="Rancher Master" style="rounded=0;whiteSpace=wrap;html=1;shadow=0;fillColor=#99CCFF;" parent="hNrFIX0jEVSQUTbNoz2p-1" vertex="1">
          <mxGeometry x="50" y="410" width="120" height="60" as="geometry" />
        </mxCell>
        <mxCell id="hNrFIX0jEVSQUTbNoz2p-33" value="Rancher Server" style="rounded=0;whiteSpace=wrap;html=1;shadow=0;fillColor=#99CCFF;" parent="hNrFIX0jEVSQUTbNoz2p-1" vertex="1">
          <mxGeometry x="50" y="550" width="120" height="60" as="geometry" />
        </mxCell>
        <mxCell id="hNrFIX0jEVSQUTbNoz2p-35" value="" style="endArrow=classic;startArrow=classic;html=1;entryX=0;entryY=0.5;entryDx=0;entryDy=0;exitX=0.5;exitY=0;exitDx=0;exitDy=0;" parent="hNrFIX0jEVSQUTbNoz2p-1" source="hNrFIX0jEVSQUTbNoz2p-32" target="hNrFIX0jEVSQUTbNoz2p-24" edge="1">
          <mxGeometry width="50" height="50" relative="1" as="geometry">
            <mxPoint x="250" y="440" as="sourcePoint" />
            <mxPoint x="300" y="390" as="targetPoint" />
            <Array as="points">
              <mxPoint x="110" y="240" />
            </Array>
          </mxGeometry>
        </mxCell>
        <mxCell id="hNrFIX0jEVSQUTbNoz2p-36" value="" style="endArrow=classic;startArrow=classic;html=1;exitX=0.5;exitY=0;exitDx=0;exitDy=0;" parent="hNrFIX0jEVSQUTbNoz2p-1" source="hNrFIX0jEVSQUTbNoz2p-33" target="hNrFIX0jEVSQUTbNoz2p-32" edge="1">
          <mxGeometry width="50" height="50" relative="1" as="geometry">
            <mxPoint x="280" y="510" as="sourcePoint" />
            <mxPoint x="330" y="460" as="targetPoint" />
          </mxGeometry>
        </mxCell>
        <mxCell id="hNrFIX0jEVSQUTbNoz2p-37" value="" style="endArrow=classic;startArrow=classic;html=1;exitX=1;exitY=0.5;exitDx=0;exitDy=0;entryX=0.001;entryY=0.279;entryDx=0;entryDy=0;entryPerimeter=0;" parent="hNrFIX0jEVSQUTbNoz2p-1" source="hNrFIX0jEVSQUTbNoz2p-32" target="hNrFIX0jEVSQUTbNoz2p-7" edge="1">
          <mxGeometry width="50" height="50" relative="1" as="geometry">
            <mxPoint x="180" y="440" as="sourcePoint" />
            <mxPoint x="230" y="390" as="targetPoint" />
          </mxGeometry>
        </mxCell>
      </root>
    </mxGraphModel>
  </diagram>
</mxfile>
